{
   "xmlns:xsi":"http://www.w3.org/2001/XMLSchema-instance",
   "xmlns:xsd":"http://www.w3.org/2001/XMLSchema",
   "Header":{
      "ErrorNumber": "InvalidDateRange",
      "ErrorMessage": "You can only retrieve data for a maximum of 7 days!"
   },
   "Contacts":{
      "Item":[]
   },
   "Invoices":{
      "Item":[]
   }
}
