{
   "xmlns:xsi":"http://www.w3.org/2001/XMLSchema-instance",
   "xmlns:xsd":"http://www.w3.org/2001/XMLSchema",
   "Header":{
      "ErrorNumber":null,
      "ErrorMessage":null
   },
   "Contacts":{
      "Item":[
         {
            "Header":{
               "ID":"463bf6f9-f96f-4f3b-9ae2-a57c244ee847",
               "CreationTime":"2015-03-19T06:45:33.003-04:00",
               "DeletionTime":"0001-01-01T00:00:00",
               "LastModifiedTime":"2015-03-27T06:11:45.437-04:00",
               "LastModifiedBy":"Test\\Yang"
            },
            "ID":"463bf6f9-f96f-4f3b-9ae2-a57c244ee847",
            "FileAs":"Test Contact",
            "Name":{
               "Title":"Name",
               "Prefix":null,
               "FirstName":"Test",
               "MiddleName":"Contact Merge",
               "LastName":"6",
               "Suffix":null
            },
            "Address":{
               "Title":"Home",
               "Street":"8 yonge street",
               "City":"toronto",
               "Province":"on",
               "PostalCode":null,
               "Country":"Canada"
            },
            "Company":null,
            "Phone1Title":"Home",
            "Phone1":"+1 (46)333-5555",
            "Phone2Title":null,
            "Phone2":null,
            "EmailTitle":"Email",
            "Email":null,
            "AdditionalURIs":{
               "Item":{
                  "Title":"Email",
                  "Type":"Email",
                  "Address":null
               }
            },
            "AdditionalPhones":{
               "Item":{
                  "Title":"Home",
                  "Number":"(46)333-5555"
               }
            },
            "Note":null,
            "NoEmail":"false",
            "NoPostCard":"false"
         },
         {
            "Header":{
               "ID":"c7939c57-c67c-4c33-bc33-56cb85dcfa10",
               "CreationTime":"2014-02-28T15:39:32.177-05:00",
               "DeletionTime":"0001-01-01T00:00:00",
               "LastModifiedTime":"2015-02-18T20:25:13.663-05:00",
               "LastModifiedBy":"Test\\Lei"
            },
            "ID":"c7939c57-c67c-4c33-bc33-56cb85dcfa10",
            "FileAs":"CarQuest With {ePartExpert}",
            "Name":{
               "Title":"Name",
               "Prefix":null,
               "FirstName":null,
               "MiddleName":null,
               "LastName":null,
               "Suffix":null
            },
            "Address":{
               "Title":"Home",
               "Street":"999 Some Street",
               "City":"Toronto",
               "Province":"ON",
               "PostalCode":null,
               "Country":"USA"
            },
            "Company":"CarQuest With {ePartExpert}",
            "Phone1Title":"Business 2",
            "Phone1":"+1 (416) 686-3114",
            "Phone2Title":"Business",
            "Phone2":"(905) 666-7779",
            "EmailTitle":"Home",
            "Email":"lei@protractor.com",
            "AdditionalURIs":{
               "Item":[
                  {
                     "Title":"Home",
                     "Type":"Email",
                     "Address":"lei@protractor.com"
                  },
                  {
                     "Title":"Business",
                     "Type":"Email",
                     "Address":"test@abc.com"
                  },
                  {
                     "Title":"Business",
                     "Type":"WebPage",
                     "Address":"http://www.Protractor.com"
                  }
               ]
            },
            "AdditionalPhones":{
               "Item":[
                  {
                     "Title":"Business 2",
                     "Number":"686-3114"
                  },
                  {
                     "Title":"Business",
                     "Number":"666-7779"
                  },
                  {
                     "Title":"Fax",
                     "Number":"456-7890"
                  },
                  {
                     "Title":"Business 2",
                     "Number":"333-4441"
                  },
                  {
                     "Title":"Home 2",
                     "Number":"663-4343"
                  },
                  {
                     "Title":"Other",
                     "Number":"456-7890"
                  },
                  {
                     "Title":"Home",
                     "Number":null
                  }
               ]
            },
            "Note":null,
            "NoEmail":"false",
            "NoPostCard":"false"
         }
      ]
   },
   "ServiceItems":{
      "Item":[
         {
            "xsi:type":"ServiceItemVehicle",
            "Header":{
               "ID":"ccdb63ef-c462-444a-8656-0d19f7aa4371",
               "CreationTime":"2013-07-19T13:58:11.163-04:00",
               "DeletionTime":"0001-01-01T00:00:00",
               "LastModifiedTime":"2014-04-28T22:01:14.863-04:00",
               "LastModifiedBy":"Test\\Lei"
            },
            "ID":"ccdb63ef-c462-444a-8656-0d19f7aa4371",
            "Type":"Vehicle",
            "Lookup":"6795AX",
            "Description":"2007 GMC Sierra 1500 Classic SL",
            "Usage":"18000",
            "ProductionDate":"0001-01-01T00:00:00",
            "Note":null,
            "NoEmail":"false",
            "NoPostCard":"false",
            "OwnerID":"c7939c57-c67c-4c33-bc33-56cb85dcfa10",
            "PlateRegistration":"TX",
            "VIN":"2GTEK13T471104369",
            "Unit":null,
            "Color":"Black",
            "Year":"2007",
            "Make":"GMC",
            "Model":"Sierra 1500",
            "Submodel":"Classic SL",
            "Engine":"V8 5.3L 5328CC 325CID"
         },
         {
            "xsi:type":"ServiceItemVehicle",
            "Header":{
               "ID":"bcb824b9-f3e8-4e14-a0c5-8ffc0e788beb",
               "CreationTime":"2015-03-23T04:57:38.25-04:00",
               "DeletionTime":"0001-01-01T00:00:00",
               "LastModifiedTime":"2015-03-23T04:57:38.25-04:00",
               "LastModifiedBy":"Test\\Yang"
            },
            "ID":"bcb824b9-f3e8-4e14-a0c5-8ffc0e788beb",
            "Type":"Vehicle",
            "Lookup":"FFFF 333",
            "Description":"2011 Audi A6 Base",
            "Usage":"0",
            "ProductionDate":"0001-01-01T00:00:00",
            "Note":null,
            "NoEmail":"false",
            "NoPostCard":"false",
            "OwnerID":"463bf6f9-f96f-4f3b-9ae2-a57c244ee847",
            "PlateRegistration":"ON",
            "VIN":"1234ASDF123ASE1",
            "Unit":null,
            "Color":null,
            "Year":"2011",
            "Make":"Audi",
            "Model":"A6",
            "Submodel":"Base",
            "Engine":"V6 3.2L 3123CC"
         }
      ]
   },
   "Invoices":{
      "Item":[
        {
          "Header": {
            "ID": "94b91992-0583-4e89-83d1-3a9377c56262",
            "CreationTime": "2015-03-27T04:27:56.83-04:00",
            "DeletionTime": "0001-01-01T00:00:00",
            "LastModifiedTime": "2013-07-31T17:53:14.557-04:00",
            "LastModifiedBy": "Test\\Yang"
          },
          "ID": "94b91992-0583-4e89-83d1-3a9377c56262",
          "Type": "WorkOrder",
          "ScheduledTime": "2012-07-04T04:40:24.52-04:00",
          "PromisedTime": "2012-07-04T04:40:24.52-04:00",
          "InvoiceTime": "2012-07-05T02:07:11.833-04:00",
          "WorkOrderNumber": "239",
          "InvoiceNumber": "91",
          "ContactID": "b6e1b583-ce4d-4455-b2d8-a4d0182d7ac7",
          "ServiceItemID": "610e8285-efcc-43fb-ac6f-9109cefc516f",
          "Technician": "Test Employee",
          "ServiceAdvisor": "Wang, Yang Protractor",
          "InUsage": "8000",
          "OutUsage": "8000",
          "ServicePackages": {
            "Item": {
              "Header": {
                "ID": "506cba1f-b340-4473-9235-e076969b273b",
                "CreationTime": "2012-07-04T18:09:19.55-04:00",
                "DeletionTime": "0001-01-01T00:00:00",
                "LastModifiedTime": "2012-07-05T02:06:36.243-04:00",
                "LastModifiedBy": "Test\\yang"
              },
              "ID": "506cba1f-b340-4473-9235-e076969b273b",
              "Chapter": "Service",
              "Rank": "1",
              "Title": "Air Filter - Inspect / Replace",
              "Description": "Check and Replace Air Filter if Needed.  ",
              "ServicePackageLines": {
                "Item": [
                  {
                    "Header": {
                      "ID": "3ef194db-1ec2-490b-b69f-edd97bbb9580",
                      "CreationTime": "2012-07-04T18:59:30.073-04:00",
                      "DeletionTime": "0001-01-01T00:00:00",
                      "LastModifiedTime": "2012-07-05T02:06:36.26-04:00",
                      "LastModifiedBy": "Test\\yang"
                    },
                    "ID": "3ef194db-1ec2-490b-b69f-edd97bbb9580",
                    "Rank": "1",
                    "Type": "Labor",
                    "Description": "Labor",
                    "Quantity": "2.5",
                    "Unit": "Hours",
                    "Price": "65.0000",
                    "PriceUnit": "Hour",
                    "Total": "162.5000",
                    "Discount": "0.0000",
                    "ExtendedTotal": "162.0000",
                    "OtherChargeCode": "HJ",
                    "Technician": "Test Employee",
                    "ServiceAdvisor": "Wang, Yang Protractor"
                  },
                  {
                    "-xsi:type": "ServicePackageMaterialLine",
                    "Header": {
                      "ID": "d65137f6-6085-41a7-9114-11de327f0554",
                      "CreationTime": "2012-07-04T18:09:19.57-04:00",
                      "DeletionTime": "0001-01-01T00:00:00",
                      "LastModifiedTime": "2012-07-05T03:20:36.43-04:00",
                      "LastModifiedBy": "Test\\yang"
                    },
                    "ID": "d65137f6-6085-41a7-9114-11de327f0554",
                    "Rank": "2",
                    "Type": "Material",
                    "Description": "AIR FILTER",
                    "Quantity": "2",
                    "Price": "3.7500",
                    "Total": "7.5000",
                    "Discount": "0.0000",
                    "ExtendedTotal": "7.5000",
                    "OtherChargeCode": "HJ",
                    "Technician": "Test Employee",
                    "ServiceAdvisor": "Wang, Yang Protractor",
                    "LineCode": "test",
                    "PartNumber": "test",
                    "Manufacturer": "test",
                    "UnitCoreValue": "0.3000",
                    "TotalCoreValue": "0.6000",
                    "CoreStatus": "Returned"
                  },
                  {
                    "-xsi:type": "ServicePackageMaterialLine",
                    "Header": {
                      "ID": "9d1f4a32-c1c3-424d-becc-d90425392910",
                      "CreationTime": "2012-07-05T00:33:33.18-04:00",
                      "DeletionTime": "0001-01-01T00:00:00",
                      "LastModifiedTime": "2012-07-05T00:57:33.813-04:00",
                      "LastModifiedBy": "Test\\yang"
                    },
                    "ID": "9d1f4a32-c1c3-424d-becc-d90425392910",
                    "Rank": "3",
                    "Type": "Material",
                    "Description": "5w30/10w30 Esso Protec Motor Oil",
                    "Quantity": "2",
                    "Unit": "Unit",
                    "Price": "434.3600",
                    "PriceUnit": "Unit",
                    "Total": "868.7200",
                    "Discount": "0.0000",
                    "ExtendedTotal": "868.7200",
                    "OtherChargeCode": "HJT",
                    "Technician": "Test Employee",
                    "ServiceAdvisor": "Wang, Yang Protractor",
                    "LineCode": "PEH",
                    "PartNumber": "03522200000",
                    "Manufacturer": "Continental",
                    "UnitCoreValue": "0.0000",
                    "TotalCoreValue": "0.0000",
                    "CoreStatus": "Returned"
                  }
                ]
              },
              "ServiceCategory": {
                "ID": "0d869318-9c49-11d3-ba81-00a024581f27",
                "Rank": "1",
                "Name": "Electrical"
              },
              "WorkOrderID": "94b91992-0583-4e89-83d1-3a9377c56262"
            }
          },
          "Summary": {
            "PartsTotal": "876.2200",
            "LaborTotal": "162.0000",
            "SubletTotal": "0.0000",
            "NetTotal": "1038.2200",
            "OtherCharges": {
              "Item": [
                {
                  "ID": "b7475599-9697-43c4-9702-559c21af50c2",
                  "Code": "J",
                  "Name": "Environmental Fee",
                  "Value": "19.50"
                },
                {
                  "ID": "5bc28a49-23ac-418f-83f9-e57f5279b460",
                  "Code": "H",
                  "Name": "Canadian Harmonized Sales Tax",
                  "Value": "134.97"
                }
              ]
            },
            "GrandTotal": "1192.6900"
          },
          "LocationID": "9e2c9ec7-8e7b-4724-8190-edae181d91eb"
        }
     ]
   },
   "Appointments":{
      "Item":[
         {
            "Header":{
               "ID":"8ed25d48-534a-4732-af9e-5a638e1b5145",
               "CreationTime":"2015-03-27T04:27:56.83-04:00",
               "DeletionTime":"0001-01-01T00:00:00",
               "LastModifiedTime":"2015-03-27T05:26:47.483-04:00",
               "LastModifiedBy":"Test\\Yang"
            },
            "ID":"8ed25d48-534a-4732-af9e-5a638e1b5145",
            "Type":"Appointment",
            "ScheduledTime":"2015-03-31T04:26:00.753-04:00",
            "PromisedTime":"2015-03-31T04:26:00.753-04:00",
            "InvoiceTime":"0001-01-01T00:00:00",
            "WorkOrderNumber":"1934",
            "InvoiceNumber":"0",
            "PurchaseOrderNumber":null,
            "ContactID":"463bf6f9-f96f-4f3b-9ae2-a57c244ee847",
            "ServiceItemID":"bcb824b9-f3e8-4e14-a0c5-8ffc0e788beb",
            "Technician":null,
            "ServiceAdvisor":null,
            "InUsage":"0",
            "OutUsage":"0",
            "Note":"test",
            "ServicePackages":null,
            "DeferredServicePackages":null,
            "OtherChargeCode":null,
            "LocationID":"9e2c9ec7-8e7b-4724-8190-edae181d91eb"
         },
         {
            "Header":{
               "ID":"1c2a5116-fbd9-4d36-ba3b-4bdda783ce6a",
               "CreationTime":"2014-03-17T08:51:41.67-04:00",
               "DeletionTime":"0001-01-01T00:00:00",
               "LastModifiedTime":"2014-03-17T08:51:41.67-04:00",
               "LastModifiedBy":"Test\\Lei"
            },
            "ID":"1c2a5116-fbd9-4d36-ba3b-4bdda783ce6a",
            "Type":"Appointment",
            "ScheduledTime":"2026-04-05T10:00:00-04:00",
            "PromisedTime":"2026-04-05T10:00:00-04:00",
            "InvoiceTime":"0001-01-01T00:00:00",
            "WorkOrderNumber":"1360",
            "InvoiceNumber":"0",
            "PurchaseOrderNumber":null,
            "ContactID":"c7939c57-c67c-4c33-bc33-56cb85dcfa10",
            "ServiceItemID":"ccdb63ef-c462-444a-8656-0d19f7aa4371",
            "Technician":null,
            "ServiceAdvisor":null,
            "InUsage":"0",
            "OutUsage":"0",
            "Note":"Oil Change (Overdue: 2007-04-01 / 5,000)\r\nTest Triggers (Due: 2026-04-05* / 98,000)",
            "ServicePackages":null,
            "DeferredServicePackages":null,
            "OtherChargeCode":null,
            "LocationID":"9e2c9ec7-8e7b-4724-8190-edae181d91eb"
         }
      ]
   }
}
